<?xml version="1.0" standalone="no"?>
<!DOCTYPE svg PUBLIC "-//W3C//DTD SVG 20010904//EN"
 "http://www.w3.org/TR/2001/REC-SVG-20010904/DTD/svg10.dtd">
<svg version="1.0" xmlns="http://www.w3.org/2000/svg"
 width="384.000000pt" height="384.000000pt" viewBox="0 0 384.000000 384.000000"
 preserveAspectRatio="xMidYMid meet">
<metadata>
Created by potrace 1.11, written by Peter Selinger 2001-2013
</metadata>
<g transform="translate(0.000000,384.000000) scale(0.100000,-0.100000)"
fill="#000000" stroke="none">
<path d="M1438 3835 c-2 -2 -15 -5 -30 -7 -15 -2 -30 -7 -34 -11 -4 -4 -14 -7
-22 -7 -25 0 -164 -70 -227 -115 -67 -47 -146 -125 -156 -153 -8 -21 18 -81
38 -89 26 -10 7 -29 -37 -38 -3 -1 -27 -5 -55 -10 -27 -5 -52 -9 -55 -10 -3 0
-15 -6 -26 -13 -12 -6 -24 -8 -28 -5 -3 3 -6 1 -6 -6 0 -7 -4 -10 -9 -7 -19
12 -181 -116 -181 -144 0 -4 -11 -19 -24 -35 -31 -36 -109 -173 -109 -191 0
-8 -3 -14 -7 -14 -15 0 -43 -126 -42 -195 1 -79 18 -115 57 -115 28 -1 56 -25
50 -42 -7 -19 -46 -46 -108 -77 -43 -22 -82 -54 -112 -93 -18 -23 -47 -107
-40 -118 3 -5 2 -10 -2 -10 -5 0 -10 -17 -11 -37 -3 -37 -8 -76 -12 -80 -2 -2
-4 -16 -5 -33 -1 -16 -3 -31 -4 -32 -2 -2 -5 -21 -7 -43 -6 -45 -12 -80 -14
-80 -1 0 -3 -16 -5 -35 -2 -19 -8 -60 -14 -90 -6 -30 -14 -68 -17 -84 -3 -16
-7 -33 -9 -37 -3 -4 1 -10 7 -12 9 -4 10 -8 2 -14 -6 -4 -10 -21 -8 -38 5 -49
13 -110 14 -110 1 0 3 -8 5 -18 14 -75 136 -219 221 -262 21 -11 41 -22 44
-26 7 -8 44 -22 53 -21 4 1 7 -3 7 -10 0 -6 3 -8 7 -5 3 4 15 -1 26 -10 10
-10 21 -16 23 -15 9 7 172 -78 177 -92 4 -9 -3 -16 -19 -19 -13 -2 -24 -1 -24
3 0 4 -6 7 -12 8 -12 1 -58 9 -98 17 -8 2 -15 4 -15 5 0 1 -16 4 -35 7 -19 2
-37 8 -40 11 -3 4 -14 7 -25 8 -11 0 -33 4 -48 7 l-28 8 15 -30 c9 -16 27 -42
41 -59 14 -16 25 -35 25 -42 0 -6 4 -8 10 -5 5 3 10 1 10 -5 0 -19 140 -150
160 -150 6 0 10 -4 10 -9 0 -8 144 -85 152 -81 2 0 19 -5 38 -13 19 -8 45 -13
58 -12 12 1 22 -2 22 -5 0 -12 63 -1 72 13 4 6 8 20 9 30 3 32 4 36 16 49 10
9 13 9 13 -1 0 -7 4 -10 9 -7 14 9 39 -27 34 -49 -12 -53 -9 -57 97 -148 14
-12 38 -28 53 -36 30 -16 25 -29 -14 -36 -36 -7 -70 11 -109 60 -50 61 -92 81
-160 74 -25 -3 -154 12 -165 19 -5 4 -13 7 -16 7 -8 0 -127 78 -163 107 -69
53 -180 173 -211 226 -11 18 -23 32 -28 32 -5 0 -7 7 -3 15 3 8 2 15 -2 15 -6
0 -28 54 -36 89 -1 8 -8 17 -14 19 -7 2 -10 7 -7 12 3 4 -1 13 -9 19 -10 9
-17 6 -28 -11 -11 -18 -14 -53 -12 -148 2 -148 12 -200 59 -305 7 -16 19 -45
26 -62 8 -18 17 -33 21 -33 5 0 7 -3 6 -7 -3 -12 39 -89 79 -147 83 -119 178
-219 280 -297 32 -24 60 -47 63 -50 9 -10 55 -33 62 -31 5 1 8 -2 8 -7 0 -5
25 -21 55 -35 30 -15 57 -31 60 -36 3 -5 12 -7 20 -3 8 3 15 1 15 -4 0 -9 99
-49 113 -45 4 1 7 -3 7 -10 0 -6 3 -9 6 -5 4 3 19 0 35 -9 16 -8 31 -14 34
-14 19 -1 65 -14 65 -19 0 -7 22 -10 128 -16 45 -2 80 0 78 4 -3 4 11 13 30
20 18 7 34 17 34 22 0 5 5 9 11 9 12 0 38 29 39 43 0 5 -5 5 -10 2 -5 -3 -10
-1 -10 6 0 8 -4 8 -12 1 -7 -5 -22 -6 -33 -2 -10 3 -29 1 -41 -5 -41 -21 -194
0 -194 28 0 5 -7 7 -15 3 -8 -3 -15 -2 -15 3 0 9 -118 71 -136 71 -8 0 -14 4
-14 9 0 5 -3 16 -6 25 -4 11 -1 16 10 16 9 0 16 4 16 10 0 6 9 6 25 0 14 -5
29 -9 33 -9 4 1 9 1 12 0 3 -1 20 -4 39 -6 46 -4 80 -24 87 -52 4 -13 9 -23
13 -24 3 0 15 -3 26 -5 11 -3 35 -6 53 -7 17 -1 32 -6 32 -11 0 -5 2 -7 5 -4
3 3 43 -3 88 -13 45 -10 85 -19 89 -19 11 0 5 22 -9 38 -7 7 -13 20 -13 28 0
8 -4 12 -10 9 -5 -3 -10 -1 -10 5 0 13 -45 32 -85 35 -16 1 -30 3 -30 4 0 2
-11 4 -25 7 -124 20 -255 84 -323 158 -119 129 -141 141 -292 161 -32 4 -36
-4 -20 -42 18 -42 12 -57 -17 -40 -36 20 -88 69 -83 78 3 4 1 10 -4 13 -15 10
-22 57 -11 71 8 10 18 11 35 5 13 -5 26 -6 29 -3 10 10 76 8 76 -2 0 -5 4 -4
9 4 6 9 14 10 22 5 8 -5 21 -9 29 -9 8 0 21 -4 28 -8 6 -5 12 -5 12 -2 0 10
102 -47 134 -75 16 -14 41 -38 55 -54 52 -59 67 -73 98 -94 61 -43 165 -59
248 -38 34 8 167 67 175 77 3 4 30 15 60 25 55 19 84 42 96 78 10 28 -8 37
-82 41 -38 2 -87 6 -109 10 -22 3 -71 7 -110 9 -38 3 -80 7 -93 10 -27 6 -55
33 -59 55 -1 8 -9 20 -17 27 -17 12 -39 64 -31 72 2 3 17 6 32 7 20 1 40 -10
71 -40 44 -43 110 -81 153 -89 13 -2 24 -5 24 -6 0 -1 24 -3 54 -4 58 -2 87
14 76 42 -4 11 10 31 44 62 32 28 53 56 57 75 9 44 11 89 5 100 -3 6 -7 19 -8
30 -5 32 -35 95 -46 95 -6 0 -7 3 -4 7 12 11 -103 104 -133 108 -3 0 -10 3
-16 7 -6 4 -47 26 -93 49 -84 43 -170 122 -201 185 -30 61 -100 161 -135 192
-43 39 -114 52 -152 26 -13 -8 -23 -12 -23 -8 0 4 -6 1 -14 -5 -23 -19 -63
-23 -63 -6 0 8 4 15 9 15 5 0 6 5 3 10 -3 5 1 10 10 10 9 0 13 5 10 10 -3 6 1
10 9 10 40 0 4 28 -44 35 -3 0 -14 6 -26 12 -26 15 -162 9 -249 -10 -11 -3
-42 -8 -69 -11 -27 -4 -52 -9 -56 -11 -3 -2 -31 -6 -62 -10 -56 -7 -57 -6 -73
24 -8 17 -15 33 -15 36 0 11 25 33 33 28 4 -2 13 -1 20 4 6 4 21 8 32 9 11 1
45 5 75 8 139 16 183 19 300 19 137 1 235 -8 278 -24 15 -6 28 -10 29 -11 18
-1 43 -12 43 -19 0 -5 4 -8 9 -7 26 8 153 -133 156 -172 1 -3 7 -16 15 -30 7
-14 13 -26 12 -27 -4 -6 51 -112 67 -129 9 -11 20 -27 24 -36 3 -10 13 -18 22
-18 8 0 15 -6 15 -12 0 -13 92 -78 110 -78 5 0 10 -3 10 -7 0 -5 10 -13 23
-19 47 -23 112 -59 117 -65 6 -6 30 -16 45 -18 6 0 11 14 12 31 0 18 2 35 3
38 5 11 5 160 0 160 -3 0 -5 35 -5 78 1 42 -2 85 -7 94 -5 10 -4 19 2 23 6 4
7 11 4 17 -4 6 -9 50 -11 97 -7 165 -9 186 -16 198 -4 6 -3 14 3 18 6 4 8 10
5 15 -3 5 -8 33 -11 62 -3 29 -11 59 -16 66 -6 6 -7 12 -4 12 4 0 -2 10 -14
22 -17 19 -30 22 -97 21 -43 -1 -98 -3 -123 -6 -94 -12 -186 -20 -218 -19 -48
1 -109 34 -172 92 -30 27 -58 50 -62 50 -4 0 -8 4 -8 9 0 5 -12 12 -27 17 -37
11 -123 13 -123 4 0 -4 -10 -10 -22 -14 -13 -3 -41 -27 -63 -53 -45 -52 -117
-124 -121 -120 -2 2 -10 59 -13 99 -1 9 -41 6 -41 -4 0 -4 -8 -8 -18 -8 -10 0
-22 -3 -26 -7 -3 -4 -12 -8 -19 -9 -7 -2 -25 -7 -42 -11 -34 -10 -37 -10 -83
1 -17 4 -32 11 -32 15 0 21 67 70 136 100 44 18 94 40 112 48 18 8 40 16 50
18 9 2 32 8 50 14 18 5 33 10 35 9 1 0 22 3 47 6 84 12 125 13 138 3 8 -6 12
-6 12 2 0 7 4 10 9 7 15 -10 51 27 57 57 4 23 -4 37 -43 80 -51 55 -62 92 -28
93 11 0 28 -4 39 -9 13 -6 23 -4 34 7 11 10 12 16 4 16 -7 0 -12 5 -12 10 0
12 -41 73 -53 78 -4 2 -5 8 -1 13 3 5 1 9 -4 9 -5 0 -9 6 -10 13 -8 81 -9 113
-4 121 3 5 6 22 7 38 4 44 54 133 107 189 32 33 48 60 49 77 1 43 9 195 12
222 6 52 48 122 102 172 58 54 61 65 35 132 -13 36 3 76 31 76 12 0 20 -3 16
-6 -8 -8 34 -54 45 -48 4 3 8 1 8 -3 0 -5 9 -9 20 -9 11 0 20 4 20 8 0 4 4 8
9 8 5 0 22 5 38 12 15 6 30 12 33 13 3 1 18 7 34 14 48 20 71 19 68 -3 -6 -34
-76 -86 -116 -86 -18 0 -69 -52 -58 -60 12 -8 9 -70 -3 -72 -5 0 -14 -2 -20
-2 -5 -1 -16 -5 -22 -9 -7 -5 -17 -5 -23 -2 -5 3 -10 2 -10 -4 0 -6 -7 -8 -15
-5 -8 4 -15 1 -15 -7 0 -7 -3 -10 -6 -6 -9 8 -55 -16 -77 -41 -21 -23 -28 -50
-32 -114 -2 -25 -6 -51 -9 -56 -3 -6 0 -13 6 -15 10 -4 10 -6 0 -6 -26 -2 52
-111 79 -111 20 0 7 -21 -52 -84 -70 -74 -139 -162 -140 -180 0 -6 -2 -26 -3
-44 -1 -18 1 -35 6 -38 4 -3 8 -13 8 -23 0 -41 77 -62 114 -31 7 5 18 5 25 1
10 -7 6 -22 -23 -72 -57 -101 -97 -189 -91 -199 4 -6 3 -10 -2 -10 -7 0 -12
-27 -17 -105 -3 -45 20 -77 75 -104 27 -14 49 -28 49 -31 0 -4 6 -7 13 -8 16
-1 38 -7 59 -16 9 -4 22 -8 30 -10 7 -1 18 -4 23 -8 14 -8 138 -21 195 -20
135 4 184 25 192 82 2 14 7 31 11 38 5 7 4 12 -3 12 -8 0 -8 6 0 20 6 11 7 20
3 20 -5 0 -8 29 -7 64 0 36 -6 80 -14 99 -11 29 -20 37 -50 42 -35 6 -129 0
-183 -10 -13 -3 -48 -8 -76 -11 -45 -6 -54 -4 -60 11 -6 18 21 46 51 51 6 2
36 7 66 14 30 6 66 13 80 15 14 3 34 7 45 9 11 2 40 7 65 11 25 4 50 12 57 17
15 12 8 165 -12 283 -9 50 -9 150 -1 190 3 17 8 41 11 55 2 14 8 39 11 55 19
88 30 268 21 335 -13 86 -22 120 -42 160 -52 101 -138 151 -267 156 -42 1 -78
1 -80 -1z"/>
<path d="M2133 3833 c-24 -5 -73 -63 -53 -63 6 0 8 -5 5 -10 -7 -11 19 -7 85
12 57 17 69 26 63 48 -5 20 -40 25 -100 13z"/>
<path d="M2370 3829 c0 -8 -70 -34 -82 -31 -5 1 -8 -3 -8 -10 0 -6 -3 -8 -7
-5 -3 4 -15 -1 -26 -10 -10 -10 -22 -18 -26 -17 -3 0 -20 -5 -38 -13 -18 -7
-37 -13 -42 -13 -5 0 -11 -3 -13 -7 -1 -5 -23 -18 -48 -31 -25 -12 -51 -32
-59 -43 -11 -19 -10 -24 7 -42 18 -18 35 -20 176 -21 86 -1 156 1 156 4 0 7
257 4 314 -4 27 -4 56 -11 65 -16 9 -4 18 -8 21 -8 9 -1 64 -23 93 -37 21 -11
34 -11 52 -3 42 19 37 36 -23 74 -89 57 -145 78 -237 89 -16 2 -43 6 -60 9
-16 4 -50 9 -75 11 -25 3 -54 7 -65 9 -11 3 -24 5 -29 5 -12 1 44 50 66 56 22
8 30 31 15 44 -15 12 -127 21 -127 10z"/>
<path d="M2360 3540 c0 -3 -26 -5 -58 -6 -52 0 -175 -12 -248 -22 -5 -1 -21
-12 -33 -24 l-23 -21 37 -18 c32 -16 55 -18 144 -14 58 3 124 8 146 11 61 8
279 12 290 6 9 -6 30 -10 78 -15 9 0 17 -5 17 -10 0 -4 6 -7 13 -6 6 1 28 -4
47 -12 19 -7 38 -12 43 -11 4 1 7 -2 7 -6 0 -4 15 -13 34 -20 54 -20 126 -85
126 -114 0 -10 5 -18 11 -18 5 0 7 -5 4 -10 -11 -18 64 -153 115 -207 28 -29
53 -53 56 -53 12 0 91 -85 116 -125 14 -22 30 -56 37 -75 14 -42 59 -80 71
-60 10 17 5 47 -21 115 -11 30 -20 58 -19 61 1 4 -3 10 -8 13 -6 3 -21 26 -34
51 -133 250 -402 550 -493 550 -8 0 -15 5 -15 11 0 5 -4 8 -9 5 -5 -4 -20 -2
-33 3 -13 5 -49 11 -81 14 -31 3 -62 9 -67 12 -6 3 -10 0 -10 -7 0 -8 -3 -9
-8 -3 -7 11 -232 15 -232 5z"/>
<path d="M2508 3395 c-1 -1 -34 -6 -73 -9 -38 -4 -83 -9 -100 -12 -54 -9 -219
-10 -255 -3 -23 5 -37 4 -42 -4 -4 -7 -8 -7 -8 -2 0 6 -5 2 -11 -8 -18 -31 33
-83 96 -97 18 -4 39 -4 46 1 7 4 19 3 26 -3 9 -7 13 -7 13 0 0 8 55 23 87 24
5 0 16 4 26 9 12 7 17 6 17 -3 0 -10 3 -10 9 1 5 8 16 11 25 8 9 -4 16 -3 16
1 0 10 182 8 240 -3 25 -5 48 -8 53 -7 4 1 7 -3 7 -9 0 -5 4 -8 8 -5 5 3 21
-2 36 -10 16 -7 35 -14 42 -14 8 0 14 -5 14 -11 0 -5 4 -8 9 -5 5 3 14 -1 21
-9 7 -8 17 -15 22 -15 5 0 22 -10 38 -22 68 -50 103 -7 44 54 -70 75 -189 131
-302 143 -31 4 -67 8 -79 10 -12 2 -23 2 -25 0z"/>
<path d="M2368 3235 c-2 -2 -21 -5 -43 -8 -85 -11 -113 -20 -212 -70 -46 -22
-81 -43 -78 -45 3 -3 -2 -10 -10 -16 -18 -14 -29 -73 -14 -82 6 -3 15 0 20 7
5 8 9 11 9 7 0 -4 20 1 44 12 24 10 47 16 50 13 3 -4 6 -1 6 5 0 7 3 11 8 11
4 -1 10 0 15 1 4 1 10 3 15 4 4 1 26 12 48 24 23 11 44 18 48 15 3 -4 6 -1 6
6 0 7 4 10 9 6 5 -3 13 0 16 6 4 5 13 8 20 5 8 -3 15 -1 17 4 2 5 22 10 45 13
24 2 46 6 49 10 3 3 17 2 30 -3 14 -6 26 -6 29 0 4 7 13 6 26 0 10 -6 19 -7
19 -3 0 4 5 2 11 -4 6 -6 18 -9 25 -6 18 7 135 -40 205 -83 31 -19 62 -34 68
-34 7 0 10 -4 7 -9 -3 -4 5 -13 18 -19 56 -25 261 -215 326 -302 14 -19 34
-45 46 -59 58 -72 203 -311 202 -335 0 -5 4 -12 9 -15 5 -3 24 -46 42 -96 18
-49 35 -97 38 -105 3 -8 7 -19 8 -25 1 -5 3 -12 4 -15 3 -6 8 -34 15 -85 2
-22 5 -40 6 -40 1 0 3 -22 5 -49 3 -28 7 -56 9 -63 3 -7 1 -13 -5 -13 -6 0 -7
-5 -3 -12 7 -11 7 -46 -2 -123 -2 -16 -5 -41 -7 -55 -1 -14 -5 -30 -9 -35 -8
-12 17 -75 30 -75 25 0 78 99 68 126 -3 7 -2 15 2 18 5 3 9 32 10 66 1 43 -2
59 -10 54 -7 -5 -8 -3 -2 7 12 20 14 39 3 39 -5 0 -7 14 -5 30 2 17 -1 30 -6
30 -5 0 -7 4 -4 9 3 4 1 23 -4 42 -10 35 -20 78 -25 114 -2 11 -8 34 -15 50
-6 17 -11 31 -10 33 4 8 -75 228 -84 234 -6 4 -8 8 -3 8 4 0 -4 22 -18 50 -14
27 -25 51 -24 52 4 6 -75 143 -85 150 -6 4 -8 8 -3 8 8 0 -38 74 -65 104 -10
11 -18 23 -18 28 0 27 -209 232 -297 291 -39 26 -76 47 -81 47 -6 0 -12 4 -14
8 -4 11 -170 82 -205 88 -14 3 -34 9 -43 14 -10 5 -32 11 -49 12 -17 1 -31 5
-31 9 0 4 -10 7 -22 7 -13 0 -58 3 -100 5 -42 3 -78 4 -80 2z"/>
<path d="M2444 3101 c-2 -2 -18 -6 -36 -8 -40 -5 -58 -9 -78 -16 -37 -14 -96
-32 -105 -32 -5 0 -12 -3 -15 -6 -3 -3 -30 -19 -60 -37 -71 -40 -126 -91 -144
-133 -12 -29 -12 -36 1 -56 l16 -23 33 25 c18 14 35 25 38 25 7 0 100 63 107
73 3 5 9 9 12 8 4 0 28 9 53 21 26 11 52 21 58 22 6 1 17 5 24 9 6 5 16 6 21
2 5 -3 12 -1 15 3 6 11 144 9 201 -3 22 -4 55 -14 73 -22 17 -7 32 -10 32 -6
0 5 4 4 8 -2 4 -5 23 -18 42 -27 58 -29 97 -53 115 -71 9 -9 20 -17 24 -17 7
0 107 -99 138 -137 45 -56 57 -73 101 -143 25 -41 51 -78 57 -82 5 -4 7 -8 2
-8 -4 0 8 -28 26 -62 37 -70 120 -262 118 -275 0 -2 8 -23 19 -48 11 -25 17
-45 13 -45 -3 0 0 -7 7 -15 7 -8 9 -15 5 -15 -4 0 -2 -6 4 -14 7 -8 8 -17 3
-20 -13 -8 -35 20 -27 34 3 5 1 10 -5 10 -6 0 -9 4 -6 8 3 5 -4 25 -14 45 -11
21 -20 38 -19 39 0 2 -5 17 -11 33 -6 17 -10 30 -8 30 1 0 -7 14 -20 32 -12
17 -22 34 -22 38 0 8 -109 177 -119 185 -3 3 -24 28 -46 55 -94 120 -273 294
-299 294 -5 -1 -12 3 -15 8 -9 13 -71 55 -71 49 0 -3 -8 1 -17 9 -10 8 -22 16
-28 17 -5 1 -16 8 -23 15 -8 7 -17 11 -22 8 -5 -3 -11 -1 -15 5 -8 12 -62 13
-69 1 -10 -15 -61 -20 -102 -10 -52 14 -111 13 -144 -2 -3 -1 -9 -3 -15 -4
-18 -3 -90 -40 -93 -47 -2 -5 -9 -8 -15 -8 -7 0 -28 -19 -47 -42 -19 -22 -40
-47 -47 -53 -7 -7 -15 -24 -19 -39 -3 -14 -9 -26 -13 -26 -4 0 -8 -6 -9 -12
-1 -7 -4 -26 -8 -43 -8 -39 -9 -162 -1 -200 3 -16 6 -34 6 -38 1 -9 38 16 133
91 37 28 70 52 73 52 3 0 15 9 26 19 12 11 47 29 79 41 47 18 71 21 136 16 89
-5 110 -9 120 -19 4 -4 16 -7 26 -7 10 0 18 -4 18 -10 0 -5 7 -10 16 -10 39 0
155 -102 221 -196 31 -43 93 -164 93 -180 0 -8 5 -14 12 -14 6 0 9 -3 6 -6 -4
-3 0 -20 7 -38 8 -18 16 -44 19 -57 2 -13 11 -53 20 -89 17 -74 29 -179 30
-262 1 -32 6 -58 11 -58 7 0 7 -3 0 -8 -6 -4 -10 -58 -11 -122 -1 -107 -16
-285 -24 -285 -3 0 -20 -89 -23 -117 -1 -10 -4 -18 -7 -18 -4 0 -7 -6 -8 -12
0 -7 -3 -24 -7 -38 -4 -14 -7 -31 -7 -37 -1 -7 -6 -13 -11 -13 -6 0 -7 -3 -4
-7 4 -3 2 -12 -4 -20 -6 -7 -8 -13 -4 -13 4 0 2 -7 -5 -15 -7 -9 -10 -18 -7
-21 6 -6 -2 -17 -35 -55 -23 -25 -41 -25 -33 1 4 11 7 30 9 43 1 13 5 28 9 33
3 6 9 25 12 42 3 17 9 42 15 56 5 15 8 26 5 26 -2 0 1 15 6 33 6 17 12 43 14
57 3 14 13 68 25 120 31 146 32 153 35 190 2 19 4 37 5 40 1 3 2 8 2 11 -10
95 -23 128 -66 168 -31 29 -28 43 -32 -149 -1 -74 -3 -137 -5 -140 -1 -3 -3
-9 -4 -15 -2 -5 -4 -12 -5 -15 -1 -3 -3 -18 -5 -35 -4 -34 -12 -78 -22 -115
-3 -14 -7 -27 -7 -30 -7 -31 -31 -107 -36 -115 -6 -8 -20 -51 -24 -75 -8 -41
-100 -228 -140 -285 -38 -55 -51 -69 -121 -140 -71 -71 -162 -138 -201 -147
-43 -11 -44 7 -4 56 22 27 40 46 40 43 0 -14 172 153 205 198 11 15 25 32 30
39 23 26 85 126 78 126 -5 0 -3 4 2 8 11 7 33 53 31 63 0 3 6 14 14 23 8 10
15 23 16 30 5 24 39 111 47 117 4 3 7 10 6 15 -3 12 12 86 20 99 3 6 7 21 8
35 1 14 5 57 9 95 9 85 10 193 0 300 -6 72 -12 120 -16 120 -1 0 -3 18 -6 40
-4 42 -11 80 -14 80 -1 0 -3 9 -5 20 -5 31 -12 57 -24 88 -6 15 -8 27 -4 27 3
0 -1 8 -10 18 -8 9 -16 22 -17 27 -5 24 -20 54 -30 60 -5 3 -8 11 -5 16 4 5 1
9 -4 9 -6 0 -11 5 -11 11 0 16 -78 91 -112 108 -42 22 -126 20 -188 -3 -30
-11 -56 -24 -58 -28 -2 -4 -9 -8 -15 -8 -17 0 -117 -69 -149 -102 -14 -15 -24
-28 -21 -28 2 0 -7 -11 -21 -24 -15 -13 -26 -27 -26 -31 0 -5 -6 -16 -14 -24
-13 -16 -43 -71 -64 -121 -6 -14 -13 -38 -16 -55 -2 -16 -7 -42 -11 -56 -9
-37 22 -48 44 -17 8 13 14 25 12 27 -1 2 2 7 7 10 5 3 35 49 67 101 73 121
114 180 139 204 47 42 101 68 148 72 100 6 174 -45 236 -166 23 -44 40 -80 37
-80 -2 0 2 -21 10 -47 18 -61 28 -109 39 -192 2 -17 7 -34 10 -40 4 -5 2 -12
-4 -16 -6 -4 -7 -12 -3 -18 13 -20 11 -187 -1 -180 -6 3 -6 0 1 -7 8 -8 9 -19
3 -29 -4 -9 -7 -33 -5 -54 2 -20 1 -37 -4 -37 -4 0 -7 -10 -8 -22 -3 -51 -8
-88 -14 -88 -3 0 -6 -6 -7 -12 -1 -23 -12 -67 -23 -95 -6 -16 -12 -36 -14 -45
-7 -35 -84 -197 -119 -251 -19 -31 -61 -80 -92 -109 -114 -107 -174 -169 -174
-183 0 -7 -4 -15 -9 -17 -13 -4 -15 -28 -7 -69 6 -28 4 -43 -9 -63 -10 -14
-21 -23 -26 -20 -5 3 -9 1 -9 -3 0 -5 -16 -17 -36 -28 -19 -10 -45 -27 -57
-38 -12 -10 -28 -22 -36 -27 -8 -4 -15 -16 -16 -26 0 -11 -4 -25 -8 -31 -8
-13 18 -24 43 -19 40 8 70 19 70 25 0 4 10 7 22 8 11 1 25 8 29 15 5 7 9 9 9
4 0 -5 7 -3 15 4 8 7 15 9 15 4 0 -5 4 -4 8 2 4 6 34 26 67 44 33 19 66 40 73
47 7 7 17 13 21 13 4 0 17 9 29 20 12 12 22 18 22 14 0 -4 11 5 25 20 13 14
27 26 30 26 4 0 27 20 53 44 111 104 154 141 166 143 5 1 12 5 15 10 3 4 31
27 61 49 48 36 72 59 141 134 34 36 103 185 94 200 -3 5 -1 11 5 15 5 3 10 17
10 31 0 13 5 24 11 24 5 0 7 5 4 10 -4 6 0 39 9 73 8 34 18 80 21 102 3 23 8
52 10 65 3 14 7 66 10 115 2 50 5 92 6 95 5 17 3 37 -4 47 -4 6 -3 14 3 18 8
5 8 11 0 20 -8 10 -8 19 -1 33 6 11 8 22 5 25 -3 3 -8 25 -10 49 -6 72 -19
151 -31 198 -13 53 -23 95 -30 133 -3 15 -10 27 -15 27 -5 0 -7 4 -4 8 3 5 -2
21 -10 37 -8 15 -12 30 -10 33 3 2 -1 14 -9 26 -8 11 -15 28 -15 38 0 10 -4
18 -10 18 -5 0 -10 6 -10 13 0 21 -87 162 -125 202 -19 21 -35 41 -35 44 0 3
-27 26 -60 51 -33 25 -66 50 -73 55 -17 14 -107 54 -137 62 -59 14 -249 3
-275 -16 -10 -8 -80 -29 -120 -36 -11 -2 -20 -4 -20 -5 0 -7 -55 -8 -59 -1 -9
14 55 72 111 101 26 13 68 37 93 52 24 16 50 26 57 24 7 -3 13 -2 13 3 0 11
117 6 156 -7 60 -19 253 -133 262 -154 2 -5 8 -8 12 -8 5 0 20 -10 33 -22 13
-13 43 -41 66 -62 43 -41 146 -163 146 -174 0 -4 10 -20 23 -37 12 -16 21 -33
20 -36 -2 -4 4 -15 13 -25 19 -21 70 -137 91 -201 7 -24 17 -43 21 -43 5 0 5
-4 2 -10 -3 -5 0 -29 6 -52 25 -89 42 -206 43 -308 0 -25 5 -49 11 -53 7 -6 6
-10 -2 -14 -10 -3 -10 -10 -1 -26 19 -37 39 -47 58 -28 17 17 41 104 43 159 1
18 5 32 8 32 4 0 3 16 -1 34 -4 19 -5 37 -2 40 3 4 1 6 -4 6 -5 0 -10 12 -10
28 -3 64 -9 102 -16 102 -5 0 -8 4 -8 8 0 5 6 9 14 9 10 0 18 -21 26 -66 7
-36 14 -77 17 -91 2 -14 5 -35 6 -47 0 -13 3 -23 7 -23 3 0 5 -24 4 -52 0 -57
18 -108 40 -108 18 0 37 39 39 83 1 20 4 37 7 37 5 0 4 153 0 175 -1 6 -2 13
-1 17 1 10 -25 135 -39 183 -6 22 -12 46 -12 53 -1 6 -6 12 -11 12 -6 0 -8 3
-4 6 6 6 -61 172 -91 225 -56 100 -95 161 -117 187 -14 17 -25 34 -25 40 0 6
-3 12 -7 14 -5 2 -33 32 -63 68 -64 75 -164 175 -222 222 -22 18 -51 43 -64
56 -13 12 -27 22 -32 22 -5 0 -17 9 -27 20 -10 11 -24 20 -32 20 -7 0 -13 3
-13 8 0 11 -101 60 -139 68 -8 1 -26 6 -40 10 -29 7 -120 11 -127 5z"/>
<path d="M2415 2480 c-3 -4 -19 -10 -36 -14 -41 -8 -199 -86 -199 -98 0 -5 -4
-7 -9 -3 -6 3 -36 -21 -68 -53 -62 -63 -87 -92 -79 -92 3 0 -2 -16 -10 -35 -8
-19 -14 -37 -14 -40 0 -3 0 -6 -1 -7 -8 -20 -3 -67 7 -83 8 -11 14 -14 14 -7
0 7 5 10 10 7 6 -3 10 1 10 9 0 8 6 19 13 23 6 4 34 35 61 68 61 74 148 155
158 149 4 -3 8 -1 8 5 0 5 16 15 35 22 19 7 35 16 35 19 0 6 33 11 78 14 12 0
22 4 22 8 0 5 30 4 100 -5 33 -5 97 -44 135 -83 60 -61 118 -181 151 -309 4
-16 9 -36 11 -42 1 -7 5 -21 7 -30 3 -10 5 -18 6 -18 1 0 3 -7 5 -15 3 -20 35
-111 41 -121 10 -17 33 5 54 53 21 48 21 111 2 143 -4 6 -7 15 -8 20 -1 6 -4
24 -7 40 -2 17 -11 47 -20 67 -8 20 -13 39 -9 42 3 3 0 6 -6 6 -7 0 -12 6 -12
13 0 21 -51 110 -94 163 -42 52 -120 117 -166 137 -14 7 -28 16 -31 21 -4 5
-11 6 -17 2 -6 -3 -16 -1 -24 6 -7 7 -24 14 -38 16 -78 7 -111 8 -115 2z"/>
<path d="M2415 2106 c-14 -10 -25 -11 -39 -4 -12 7 -16 7 -12 0 6 -10 0 -12
-51 -13 -13 0 -23 -4 -23 -10 0 -5 -5 -9 -11 -9 -13 0 -63 -50 -95 -96 -22
-30 -84 -149 -84 -159 0 -3 -6 -20 -14 -39 -8 -19 -12 -37 -8 -40 3 -3 0 -6
-6 -6 -7 0 -11 -3 -10 -7 1 -5 -1 -24 -5 -43 -15 -72 -16 -83 -22 -134 -3 -28
-1 -57 4 -65 11 -17 53 -22 64 -7 10 14 2 -57 -18 -154 -2 -8 -4 -15 -5 -15
-1 0 -3 -9 -5 -20 -5 -25 -17 -87 -21 -100 -1 -5 -5 -23 -8 -40 -10 -52 -24
-110 -26 -110 -1 0 -3 -13 -6 -30 -5 -36 -12 -70 -14 -70 -1 0 -3 -11 -5 -25
-2 -14 -5 -32 -7 -40 -2 -9 6 -16 18 -18 16 -2 25 6 38 31 13 29 92 250 99
282 2 6 8 19 14 30 6 11 9 28 8 38 -2 9 0 17 4 17 4 0 16 29 26 65 11 36 24
65 28 65 5 0 6 4 3 8 -3 5 1 20 9 35 8 15 12 27 10 27 -2 0 15 46 37 103 51
131 88 229 88 234 0 2 16 19 35 38 25 23 42 32 58 29 26 -5 87 -66 87 -88 0
-8 5 -18 10 -21 6 -4 8 -10 6 -14 -3 -4 -1 -23 4 -42 19 -74 34 -299 19 -299
-4 0 -6 -10 -5 -22 2 -21 -26 -143 -41 -178 -3 -8 -5 -18 -5 -22 1 -5 -2 -8
-6 -8 -4 0 -9 -10 -9 -22 -1 -13 -7 -24 -13 -26 -5 -2 -10 -10 -10 -18 0 -8
-4 -14 -10 -14 -5 0 -9 -3 -8 -7 2 -8 -21 -54 -31 -63 -3 -3 -18 -23 -33 -45
-15 -22 -39 -53 -53 -70 -14 -16 -33 -40 -43 -53 -9 -12 -22 -28 -27 -35 -197
-240 -288 -373 -283 -413 5 -46 36 -37 101 31 31 33 60 68 63 78 3 9 10 17 15
17 6 0 8 4 5 9 -3 5 1 14 9 21 8 7 12 16 9 21 -3 5 -2 9 3 9 4 0 19 17 33 37
40 60 51 73 124 142 155 148 159 153 188 212 32 63 45 100 62 178 2 10 9 34
14 53 5 18 8 46 6 61 -1 15 0 27 4 27 4 0 8 46 9 103 1 56 3 104 4 107 1 3 1
9 0 14 -1 5 -4 43 -6 85 -9 148 -22 236 -41 272 -14 28 -74 78 -74 62 0 -4 -4
-2 -9 5 -11 18 -71 22 -101 6 -36 -18 -171 -154 -153 -154 4 0 3 -4 -4 -8 -13
-8 -77 -125 -88 -162 -4 -14 -16 -40 -28 -59 -16 -27 -22 -30 -29 -18 -5 9 -4
34 2 59 6 24 13 52 14 63 2 11 18 52 36 90 18 39 34 72 34 75 1 3 17 27 36 54
44 61 109 126 127 126 7 0 13 5 13 10 0 6 13 8 33 4 37 -7 91 -14 127 -17 34
-3 63 11 53 26 -4 7 -8 16 -8 20 0 14 -47 57 -56 51 -5 -3 -9 0 -9 5 0 16 -93
13 -115 -3z"/>
<path d="M2449 1776 c-19 -13 -47 -70 -63 -128 -5 -16 -11 -28 -15 -28 -4 0
-8 -7 -9 -15 -1 -8 -3 -22 -4 -30 -1 -8 -5 -15 -9 -15 -7 0 -24 -49 -21 -62 1
-5 -3 -8 -8 -8 -5 0 -9 -3 -8 -7 3 -16 -15 -63 -24 -63 -5 0 -6 -5 -3 -10 4
-6 3 -16 -3 -23 -5 -7 -15 -34 -22 -62 -7 -27 -17 -55 -22 -61 -4 -6 -9 -23
-10 -38 -1 -14 -5 -26 -8 -26 -3 0 -6 -8 -7 -17 0 -10 -4 -29 -7 -43 -4 -14
-9 -36 -12 -49 -3 -13 -9 -31 -13 -40 -5 -9 -6 -22 -4 -28 3 -7 1 -13 -4 -13
-5 0 -9 -8 -10 -17 -1 -10 -7 -31 -14 -48 -7 -16 -13 -32 -14 -35 -6 -24 -19
-56 -24 -60 -13 -10 -81 -149 -81 -164 0 -9 -5 -16 -12 -16 -6 0 -9 -3 -5 -6
3 -3 2 -16 -2 -28 -4 -11 -5 -31 -2 -42 10 -37 45 -11 95 71 25 43 46 80 46
82 0 3 9 18 21 34 11 16 17 29 14 29 -4 0 0 6 7 14 7 7 20 24 28 36 44 68 122
146 176 176 19 11 90 118 92 139 0 5 4 24 7 40 4 17 8 36 8 43 0 6 4 12 8 12
8 0 3 208 -7 255 -3 17 -8 73 -11 125 -6 109 -19 145 -44 126z"/>
<path d="M3461 1438 c-5 -13 -12 -43 -15 -68 -18 -115 -17 -111 -30 -165 -7
-26 -14 -47 -21 -65 -2 -3 -6 -15 -10 -27 -4 -13 -12 -20 -22 -16 -11 4 -13
20 -8 82 3 42 7 102 8 133 1 32 5 58 10 58 4 0 0 14 -8 31 -15 29 -43 36 -37
9 1 -7 -1 -17 -6 -24 -4 -6 -7 -22 -6 -36 1 -14 -1 -29 -4 -35 -4 -5 -8 -19
-9 -30 -2 -11 -4 -29 -6 -40 -4 -22 -16 -95 -23 -135 -2 -14 -6 -36 -9 -50 -3
-14 -8 -34 -10 -45 -9 -39 -15 -65 -21 -87 -3 -13 -6 -28 -8 -35 -1 -7 -5 -16
-9 -19 -4 -4 -7 -14 -7 -23 0 -14 -65 -155 -82 -176 -44 -55 -86 -113 -90
-125 -9 -26 9 -48 36 -43 32 7 58 36 156 178 159 231 287 445 273 459 -4 3 -2
6 3 6 6 0 11 10 11 23 2 29 20 142 23 142 8 0 3 93 -6 102 -7 7 -14 17 -16 21
-1 5 -13 13 -25 16 -18 6 -25 2 -32 -16z"/>
<path d="M3189 1428 c0 -7 -2 -22 -5 -33 -2 -11 -6 -37 -9 -58 -2 -21 -7 -42
-10 -47 -3 -4 -8 -30 -11 -56 -3 -27 -7 -51 -10 -55 -2 -4 -6 -24 -10 -45 -3
-22 -10 -59 -16 -84 -5 -25 -12 -61 -15 -80 -3 -19 -8 -37 -12 -40 -4 -3 -6
-15 -5 -27 1 -13 -3 -23 -8 -23 -5 0 -6 -4 -3 -10 9 -14 -44 -139 -73 -172
-31 -34 -122 -105 -126 -98 -1 3 -10 -2 -19 -10 -8 -8 -44 -31 -79 -50 -35
-19 -88 -60 -118 -92 -72 -74 -102 -108 -95 -108 3 0 -6 -18 -20 -40 -14 -22
-25 -44 -25 -50 0 -5 -4 -10 -10 -10 -5 0 -10 -7 -10 -15 0 -8 -3 -15 -7 -15
-5 0 -13 -10 -19 -23 -32 -66 -57 -107 -66 -107 -5 0 -7 -4 -4 -9 3 -5 -1 -14
-9 -21 -17 -14 -3 -51 18 -47 7 1 45 35 85 75 39 41 72 70 72 66 0 -5 7 2 16
14 27 38 106 71 128 53 6 -5 14 -10 19 -10 22 -3 3 -20 -58 -52 -63 -32 -113
-79 -87 -79 6 0 9 -6 6 -14 -7 -18 23 -29 45 -16 10 5 21 7 24 4 6 -7 39 12
92 51 49 36 56 46 49 65 -3 8 -7 20 -8 27 -1 7 -5 16 -9 19 -18 18 -4 41 36
58 99 42 173 122 165 179 -3 23 -4 23 -33 10 -16 -7 -42 -21 -57 -31 -59 -38
-123 -73 -145 -78 -13 -4 -23 -9 -23 -13 0 -4 -9 -7 -20 -7 -11 0 -20 6 -20
13 0 17 105 121 160 158 25 16 48 34 52 40 4 5 8 6 8 2 0 -11 88 50 126 87 26
26 85 109 90 126 0 3 7 21 15 40 7 19 12 38 11 43 -1 4 2 7 6 7 5 0 8 14 7 30
-1 17 1 30 5 30 3 0 6 10 7 23 1 12 4 36 8 52 13 64 16 81 20 105 7 50 14 96
20 120 3 14 7 39 10 55 2 17 7 44 11 60 14 61 11 89 -12 108 -26 20 -44 22
-45 5z"/>
<path d="M3478 978 c-23 -8 -45 -47 -39 -71 1 -4 -6 -15 -14 -23 -8 -9 -13
-19 -10 -24 3 -5 2 -10 -2 -12 -5 -1 -17 -19 -27 -38 -22 -41 -88 -143 -96
-150 -3 -3 -17 -21 -30 -40 -47 -66 -177 -216 -271 -310 -65 -66 -80 -92 -60
-104 8 -6 107 54 148 90 11 10 38 33 60 51 66 54 146 138 297 309 36 42 44 60
27 66 -15 5 -22 60 -9 75 6 7 7 13 3 13 -4 0 -2 7 5 15 14 17 56 96 70 131 11
27 -11 35 -52 22z"/>
<path d="M1730 438 c0 -4 -5 -8 -10 -8 -12 0 -29 -13 -65 -50 -36 -36 -33 -80
7 -125 27 -31 36 -36 65 -32 55 8 99 65 107 140 5 39 2 50 -14 64 -20 18 -90
26 -90 11z"/>
<path d="M2363 247 c-12 -6 -46 -25 -75 -41 -65 -35 -83 -48 -84 -61 -1 -5 -4
-22 -8 -38 -5 -23 -2 -29 19 -39 14 -6 25 -15 25 -20 0 -13 30 7 80 53 25 23
59 53 76 68 37 33 48 59 33 77 -14 17 -37 18 -66 1z"/>
</g>
</svg>
